Tidy Data Manipulation – Biostatistics - Research School in Clinical Psychiatry
…
Summarizing longitudinal data

Now that we have our data in long format, we can easily calculate means by group and time:

lsas_summary <- df_lsas_long |>
  summarize(
    n_obs = sum(!is.na(lsas_score)),
    mean_lsas = mean(lsas_score, na.rm = TRUE),
    sd_lsas = sd(lsas_score, na.rm = TRUE),
    .by = c(group_factor, time_factor)
  )

lsas_summary

# A tibble: 36 × 5
   group_factor     time_factor    n_obs mean_lsas sd_lsas
   <fct>            <fct>          <int>     <dbl>   <dbl>
 1 Therapist-guided Baseline          60      84.2    17.0
 2 Therapist-guided Week 1            59      78.3    19.2
 3 Therapist-guided Week 2            51      77.5    20.8
 4 Therapist-guided Week 3            48      75.7    21.1
 5 Therapist-guided Week 4            49      72.0    19.1
 6 Therapist-guided Week 5            45      68.9    23.6
 7 Therapist-guided Week 6            47      61.9    20.9
 8 Therapist-guided Week 7            48      61.8    23.9
 9 Therapist-guided Week 8            43      57.5    21.8
10 Therapist-guided Post-treatment    54      57.4    23.2
# ℹ 26 more rows
…
