Power Analysis and Sample Size Planning – Biostatistics - Research School in Clinical Psychiatry
…
      n_per_group = n_per_group,
      effect_size = effect_size,
      alpha = alpha
    )
  ) |> list_rbind()
}
# Run on 8 CPU threads in parallel
daemons(8)
run_power_sim_functional(
  n_per_group = sample_size_per_group,
  effect_size = 0.5,
  n_simulations = 10000
)

# A tibble: 10,000 × 5
   simulation  p_value ci_lower ci_upper significant
        <int>    <dbl>    <dbl>    <dbl> <lgl>      
 1          1 0.00868    -0.993  -0.148  TRUE       
 2          2 0.105      -0.634   0.0607 FALSE      
 3          3 0.756      -0.492   0.358  FALSE      
 4          4 0.195      -0.639   0.132  FALSE      
 5          5 0.00202    -1.12   -0.257  TRUE       
 6          6 0.973      -0.392   0.379  FALSE      
 7          7 0.100      -0.789   0.0704 FALSE      
 8          8 0.000495   -1.11   -0.322  TRUE       
 9          9 0.000787   -1.15   -0.313  TRUE       
10         10 0.00398    -1.04   -0.204  TRUE       
# ℹ 9,990 more rows
…
